<?xml version="1.0" encoding="UTF-8" standalone="no"?>
<!-- Created with Inkscape (http://www.inkscape.org/) -->

<svg
   xmlns:dc="http://purl.org/dc/elements/1.1/"
   xmlns:cc="http://creativecommons.org/ns#"
   xmlns:rdf="http://www.w3.org/1999/02/22-rdf-syntax-ns#"
   xmlns:svg="http://www.w3.org/2000/svg"
   xmlns="http://www.w3.org/2000/svg"
   xmlns:sodipodi="http://sodipodi.sourceforge.net/DTD/sodipodi-0.dtd"
   xmlns:inkscape="http://www.inkscape.org/namespaces/inkscape"
   width="14"
   height="14"
   id="svg2"
   version="1.1"
   inkscape:version="0.48.4 r9939"
   sodipodi:docname="edit.svg"
   inkscape:export-filename="C:\wamp\www\gol\assets\template\images\comments\edit.png"
   inkscape:export-xdpi="90"
   inkscape:export-ydpi="90">
  <defs
     id="defs4" />
  <sodipodi:namedview
     id="base"
     pagecolor="#ffffff"
     bordercolor="#666666"
     borderopacity="1.0"
     inkscape:pageopacity="0.0"
     inkscape:pageshadow="2"
     inkscape:zoom="32"
     inkscape:cx="11.077659"
     inkscape:cy="7.5499137"
     inkscape:document-units="px"
     inkscape:current-layer="layer1"
     showgrid="false"
     inkscape:window-width="1920"
     inkscape:window-height="1018"
     inkscape:window-x="1912"
     inkscape:window-y="-8"
     inkscape:window-maximized="1"
     showguides="true"
     inkscape:guide-bbox="true">
    <sodipodi:guide
       orientation="1,0"
       position="0,0"
       id="guide3772" />
    <sodipodi:guide
       orientation="1,0"
       position="14,14"
       id="guide3776" />
    <sodipodi:guide
       orientation="0,1"
       position="0,0"
       id="guide3778" />
    <sodipodi:guide
       orientation="0,1"
       position="14,14"
       id="guide3782" />
    <sodipodi:guide
       orientation="1,0"
       position="1,6.5659916"
       id="guide3755" />
    <sodipodi:guide
       orientation="0,1"
       position="2.6990013,1"
       id="guide3757" />
    <sodipodi:guide
       orientation="0,1"
       position="3.1725103,13"
       id="guide3759" />
    <sodipodi:guide
       orientation="1,0"
       position="13,2.7779195"
       id="guide3761" />
    <sodipodi:guide
       orientation="0,1"
       position="2.367545,3"
       id="guide3763" />
    <sodipodi:guide
       orientation="1,0"
       position="3,9.5964492"
       id="guide3765" />
    <sodipodi:guide
       orientation="1,0"
       position="11,10.480333"
       id="guide3769" />
    <sodipodi:guide
       orientation="0,1"
       position="-2.0203051,11"
       id="guide3771" />
  </sodipodi:namedview>
  <metadata
     id="metadata7">
    <rdf:RDF>
      <cc:Work
         rdf:about="">
        <dc:format>image/svg+xml</dc:format>
        <dc:type
           rdf:resource="http://purl.org/dc/dcmitype/StillImage" />
        <dc:title></dc:title>
      </cc:Work>
    </rdf:RDF>
  </metadata>
  <g
     inkscape:label="Layer 1"
     inkscape:groupmode="layer"
     id="layer1"
     transform="translate(0,-1038.3622)">
    <path
       style="fill:#333333;fill-opacity:1;stroke:#222222;stroke-width:0.5;stroke-linecap:round;stroke-linejoin:round;stroke-miterlimit:4;stroke-opacity:1;stroke-dasharray:none"
       d="m 0.28,1052.0822 0,-2.24 11.2,-11.2 2.24,2.24 -11.2,11.2 z"
       id="path3767"
       inkscape:connector-curvature="0"
       sodipodi:nodetypes="cccccc" />
    <path
       inkscape:connector-curvature="0"
       id="path3777"
       d="m 9.8485389,1040.3312 2.2087511,2.2087"
       style="fill:#222222;fill-opacity:1;stroke:#222222;stroke-width:0.5;stroke-linecap:round;stroke-linejoin:round;stroke-miterlimit:4;stroke-opacity:1;stroke-dasharray:none" />
    <path
       inkscape:connector-curvature="0"
       id="path3781"
       d="m 12.114345,1039.1326 -1.769243,1.7734"
       style="fill:#222222;fill-opacity:1;stroke:#222222;stroke-width:0.25;stroke-linecap:round;stroke-linejoin:round;stroke-miterlimit:4;stroke-opacity:1;stroke-dasharray:none" />
    <path
       style="fill:#222222;fill-opacity:1;stroke:#222222;stroke-width:0.25;stroke-linecap:round;stroke-linejoin:round;stroke-miterlimit:4;stroke-opacity:1;stroke-dasharray:none"
       d="m 12.535559,1039.7744 -1.714922,1.7188"
       id="path3783"
       inkscape:connector-curvature="0" />
    <path
       inkscape:connector-curvature="0"
       id="path3785"
       d="m 1.6493122,1051.9105 -1.15432873,0 0,-1.2091 z"
       style="fill:#222222;fill-opacity:1;stroke:#222222;stroke-width:0.25;stroke-linecap:round;stroke-linejoin:round;stroke-miterlimit:4;stroke-opacity:1;stroke-dasharray:none"
       sodipodi:nodetypes="cccc" />
    <path
       inkscape:connector-curvature="0"
       id="path3805"
       d="m 13.151769,1040.2239 -1.764304,1.7683"
       style="fill:#222222;fill-opacity:1;stroke:#222222;stroke-width:0.25;stroke-linecap:round;stroke-linejoin:round;stroke-miterlimit:4;stroke-opacity:1;stroke-dasharray:none" />
  </g>
</svg>
